{
    "pose_backends": [
        {
            "name": "posenet",
            "params": {
                "base_model": "resnet50",
                "device_id": 0,
                "draw_bounding_boxes": false,
                "draw_skeleton_edges": true,
                "input_resolution": [
                    250,
                    250
                ],
                "min_keypoint_confidence": 0.1,
                "min_pose_confidence": 0.15,
                "multi_pose_detection": true,
                "output_stride": 32
            }
        }
    ],
    "cameras": {
        "input_paths":["/dev/video4"],
        "flip_camera": false,
        "params": {
            "/dev/video4": {
                "resolution": [640, 480],
                "framerate": 60,
                "api": "pyrealsense2",
                "align_frames": false,
                "flip": false,
                "rotate": 0,
                "id": 0
            },
            "/dev/video12": {
                "resolution": [
                    640,
                    480
                ],
                "framerate": 60,
                "api": "pyrealsense2",
                "flip": false,
                "rotate": 0,
                "id": 1
            }
        },
        "intrinsics": {}
    },
    "dimmaps": {
        "realsense_2d_to_3d": {
            "calibration_matrices": [
                [[ 1.0, 0.0, 0.0, 0.0],
                [ 0.0, 1.0, 0.0, 0.0],
                [ 0.0, 0.0, 1.0, 0.0],
                [ 0.0, 0.0, 0.0, 1.0]]
            ]
        }
    },
    "filters": {
        "skeletons": {
            "two_dimensional": true,
            "three_dimensional": false
        }
    },
    "outputs": {
        "osc": {
            "destinations": {
                "localhost": 9000
            }
        }
    }
}
