{
    "pose_backends": [
        {
            "name": "posenet",
            "params": {
                "base_model": "resnet50",
                "device_id": 0,
                "draw_bounding_boxes": false,
                "draw_skeleton_edges": true,
                "input_resolution": [250, 250],
                "min_keypoint_confidence": 0.1,
                "min_pose_confidence": 0.15,
                "multi_pose_detection": true,
                "output_stride": 32
            }
        }
    ],
    "cameras": {
        "input_paths":["/dev/video0"],
        "flip_camera": false,
        "params": {
            "/dev/video0": {
                "resolution": [640, 480],
                "framerate": 30,
                "flip": false,
                "rotate": 0
            }
        },
        "intrinsics": {}
    },
    "filters": {
        "armup": {}
    },
    "outputs": {
        "osc": {
            "destinations": {
                "localhost": 9000
            }
        }
    }
}

